data:{"instrumentName": "Galactia", "cpty": "Lewis", "price": 9964.235074757127, "type": "S", "quantity": 71, "time": "11-Aug-2019 (12:07:06.471252)"}

data:{"instrumentName": "Deuteronic", "cpty": "Lewis", "price": 8540.619061084186, "type": "B", "quantity": 2, "time": "11-Aug-2019 (12:07:06.669213)"}

data:{"instrumentName": "Lunatic", "cpty": "John", "price": 1830.8271150278415, "type": "B", "quantity": 1, "time": "11-Aug-2019 (12:07:06.944790)"}

data:{"instrumentName": "Astronomica", "cpty": "Nidia", "price": 3409.1510219490383, "type": "S", "quantity": 3, "time": "11-Aug-2019 (12:07:07.042573)"}

data:{"instrumentName": "Heliosphere", "cpty": "Lina", "price": 7748.8136364925085, "type": "S", "quantity": 430, "time": "11-Aug-2019 (12:07:07.106903)"}

data:{"instrumentName": "Floral", "cpty": "Lina", "price": 392.68752101888583, "type": "S", "quantity": 157, "time": "11-Aug-2019 (12:07:07.222031)"}

data:{"instrumentName": "Interstella", "cpty": "Selvyn", "price": 3569.218762415197, "type": "B", "quantity": 17, "time": "11-Aug-2019 (12:07:07.512138)"}

data:{"instrumentName": "Lunatic", "cpty": "Lina", "price": 1829.1557276459944, "type": "S", "quantity": 18, "time": "11-Aug-2019 (12:07:07.653035)"}

data:{"instrumentName": "Eclipse", "cpty": "Richard", "price": 9858.733663910441, "type": "S", "quantity": 273, "time": "11-Aug-2019 (12:07:07.666203)"}

data:{"instrumentName": "Lunatic", "cpty": "Selvyn", "price": 1845.6411973911347, "type": "B", "quantity": 434, "time": "11-Aug-2019 (12:07:07.747054)"}

data:{"instrumentName": "Astronomica", "cpty": "John", "price": 3370.833495406355, "type": "S", "quantity": 8, "time": "11-Aug-2019 (12:07:07.773858)"}

data:{"instrumentName": "Galactia", "cpty": "Lewis", "price": 10051.25633626954, "type": "B", "quantity": 11, "time": "11-Aug-2019 (12:07:07.876999)"}

data:{"instrumentName": "Heliosphere", "cpty": "Lina", "price": 7826.37710272039, "type": "B", "quantity": 19, "time": "11-Aug-2019 (12:07:08.054357)"}

data:{"instrumentName": "Eclipse", "cpty": "Nidia", "price": 9944.124458906652, "type": "B", "quantity": 834, "time": "11-Aug-2019 (12:07:08.120683)"}

data:{"instrumentName": "Borealis", "cpty": "Richard", "price": 5714.352928045318, "type": "S", "quantity": 15, "time": "11-Aug-2019 (12:07:08.383706)"}
